%YAML 1.1
%TAG !u! tag:unity3d.com,2011:
--- !u!114 &11400000
MonoBehaviour:
  m_ObjectHideFlags: 0
  m_CorrespondingSourceObject: {fileID: 0}
  m_PrefabInstance: {fileID: 0}
  m_PrefabAsset: {fileID: 0}
  m_GameObject: {fileID: 0}
  m_Enabled: 1
  m_EditorHideFlags: 0
  m_Script: {fileID: 11500000, guid: 5a8e00b2ef123f14899d4513b89e9a21, type: 3}
  m_Name: tiles-stones_18
  m_EditorClassIdentifier: 
  BlockTile: {fileID: 11400000, guid: 12c876abb6298a94e862c0ff2468cf33, type: 2}
