%YAML 1.1
%TAG !u! tag:unity3d.com,2011:
--- !u!114 &11400000
MonoBehaviour:
  m_ObjectHideFlags: 0
  m_CorrespondingSourceObject: {fileID: 0}
  m_PrefabInstance: {fileID: 0}
  m_PrefabAsset: {fileID: 0}
  m_GameObject: {fileID: 0}
  m_Enabled: 1
  m_EditorHideFlags: 0
  m_Script: {fileID: 11500000, guid: 2d72c074240a11247aa6d704fd717e68, type: 3}
  m_Name: IntroSequence
  m_EditorClassIdentifier: 
  _dialogueMessages:
  - _voiceOver:
      name: Narration1
      clip: {fileID: 8300000, guid: 213b3e86136dbba44ac098d7f2ccb4cb, type: 3}
      Volume: 1
      Pitch: 1
      Loop: 0
      source: {fileID: 0}
    _waitForTrackToComplete: 1
    _message: What is this?
    _autoContinue: 1
    _startDelay: 2
    _endDelay: 0
    _playerResponseChoices: []
  - _voiceOver:
      name: Narration2
      clip: {fileID: 8300000, guid: 6b369cad41b89d64e8492eaeb191be76, type: 3}
      Volume: 1
      Pitch: 1
      Loop: 0
      source: {fileID: 0}
    _waitForTrackToComplete: 1
    _message: Where am I?
    _autoContinue: 1
    _startDelay: 0
    _endDelay: 0
    _playerResponseChoices: []
  - _voiceOver:
      name: Narration3
      clip: {fileID: 8300000, guid: c06509fd250108b4f8eb1f48f6a0d3a5, type: 3}
      Volume: 1
      Pitch: 1
      Loop: 0
      source: {fileID: 0}
    _waitForTrackToComplete: 1
    _message: What am I?
    _autoContinue: 1
    _startDelay: 0
    _endDelay: 0
    _playerResponseChoices: []
  - _voiceOver:
      name: Narration4
      clip: {fileID: 8300000, guid: 95e33b7024676494fbd0443df782fff1, type: 3}
      Volume: 1
      Pitch: 1
      Loop: 0
      source: {fileID: 0}
    _waitForTrackToComplete: 1
    _message: Hmm. I don't remember anything.
    _autoContinue: 1
    _startDelay: 0
    _endDelay: 0
    _playerResponseChoices: []
