%YAML 1.1
%TAG !u! tag:unity3d.com,2011:
--- !u!114 &11400000
MonoBehaviour:
  m_ObjectHideFlags: 0
  m_CorrespondingSourceObject: {fileID: 0}
  m_PrefabInstance: {fileID: 0}
  m_PrefabAsset: {fileID: 0}
  m_GameObject: {fileID: 0}
  m_Enabled: 1
  m_EditorHideFlags: 0
  m_Script: {fileID: 11500000, guid: 7197cfe424c930a4c89def6efd605774, type: 3}
  m_Name: PropellerPlantAsset
  m_EditorClassIdentifier: 
  _mouseFollowObject: {fileID: 398230620904683424, guid: 11133cd4b55632e498110f8796775a5f,
    type: 3}
  _blockPrefab: {fileID: 398230620904683424, guid: fe33633cc834cd6479a274c6369fe209,
    type: 3}
  _blockTile: {fileID: 0}
  _blockSprite: {fileID: 21300000, guid: 9223f1903ff477045a6bc836b77d518d, type: 3}
