%YAML 1.1
%TAG !u! tag:unity3d.com,2011:
--- !u!1001 &3256526779832857884
PrefabInstance:
  m_ObjectHideFlags: 0
  serializedVersion: 2
  m_Modification:
    m_TransformParent: {fileID: 0}
    m_Modifications:
    - target: {fileID: 2065534795744898923, guid: a0110c8353e43774ba7b65fb4c7a91a5,
        type: 3}
      propertyPath: _speed
      value: 2
      objectReference: {fileID: 0}
    - target: {fileID: 2065534795744898923, guid: a0110c8353e43774ba7b65fb4c7a91a5,
        type: 3}
      propertyPath: _numberOfHitsBeforeDying
      value: 1
      objectReference: {fileID: 0}
    - target: {fileID: 2065534795744898923, guid: a0110c8353e43774ba7b65fb4c7a91a5,
        type: 3}
      propertyPath: _damageToDealBeforeDying
      value: 1
      objectReference: {fileID: 0}
    - target: {fileID: 2065534795744898923, guid: a0110c8353e43774ba7b65fb4c7a91a5,
        type: 3}
      propertyPath: _durationActiveBeforeDying
      value: 100
      objectReference: {fileID: 0}
    - target: {fileID: 2065534795744898923, guid: a0110c8353e43774ba7b65fb4c7a91a5,
        type: 3}
      propertyPath: _distanceTraveledBeforeDying
      value: 100
      objectReference: {fileID: 0}
    - target: {fileID: 2065534795744898923, guid: a0110c8353e43774ba7b65fb4c7a91a5,
        type: 3}
      propertyPath: _damage
      value: 1
      objectReference: {fileID: 0}
    - target: {fileID: 2065534795744898923, guid: a0110c8353e43774ba7b65fb4c7a91a5,
        type: 3}
      propertyPath: _gravity
      value: 0
      objectReference: {fileID: 0}
    - target: {fileID: 2065534795744898923, guid: a0110c8353e43774ba7b65fb4c7a91a5,
        type: 3}
      propertyPath: _assetListName
      value: BaseProjectile
      objectReference: {fileID: 0}
    - target: {fileID: 4729206078886472367, guid: a0110c8353e43774ba7b65fb4c7a91a5,
        type: 3}
      propertyPath: m_LocalPosition.x
      value: 0
      objectReference: {fileID: 0}
    - target: {fileID: 4729206078886472367, guid: a0110c8353e43774ba7b65fb4c7a91a5,
        type: 3}
      propertyPath: m_LocalPosition.y
      value: 0
      objectReference: {fileID: 0}
    - target: {fileID: 4729206078886472367, guid: a0110c8353e43774ba7b65fb4c7a91a5,
        type: 3}
      propertyPath: m_LocalPosition.z
      value: 0
      objectReference: {fileID: 0}
    - target: {fileID: 4729206078886472367, guid: a0110c8353e43774ba7b65fb4c7a91a5,
        type: 3}
      propertyPath: m_LocalRotation.x
      value: 0
      objectReference: {fileID: 0}
    - target: {fileID: 4729206078886472367, guid: a0110c8353e43774ba7b65fb4c7a91a5,
        type: 3}
      propertyPath: m_LocalRotation.y
      value: 0
      objectReference: {fileID: 0}
    - target: {fileID: 4729206078886472367, guid: a0110c8353e43774ba7b65fb4c7a91a5,
        type: 3}
      propertyPath: m_LocalRotation.z
      value: 0
      objectReference: {fileID: 0}
    - target: {fileID: 4729206078886472367, guid: a0110c8353e43774ba7b65fb4c7a91a5,
        type: 3}
      propertyPath: m_LocalRotation.w
      value: 1
      objectReference: {fileID: 0}
    - target: {fileID: 4729206078886472367, guid: a0110c8353e43774ba7b65fb4c7a91a5,
        type: 3}
      propertyPath: m_RootOrder
      value: 0
      objectReference: {fileID: 0}
    - target: {fileID: 4729206078886472367, guid: a0110c8353e43774ba7b65fb4c7a91a5,
        type: 3}
      propertyPath: m_LocalEulerAnglesHint.x
      value: 0
      objectReference: {fileID: 0}
    - target: {fileID: 4729206078886472367, guid: a0110c8353e43774ba7b65fb4c7a91a5,
        type: 3}
      propertyPath: m_LocalEulerAnglesHint.y
      value: 0
      objectReference: {fileID: 0}
    - target: {fileID: 4729206078886472367, guid: a0110c8353e43774ba7b65fb4c7a91a5,
        type: 3}
      propertyPath: m_LocalEulerAnglesHint.z
      value: 0
      objectReference: {fileID: 0}
    - target: {fileID: 6341726317393230934, guid: a0110c8353e43774ba7b65fb4c7a91a5,
        type: 3}
      propertyPath: m_Name
      value: TrampolineTurretProjectile
      objectReference: {fileID: 0}
    m_RemovedComponents: []
  m_SourcePrefab: {fileID: 100100000, guid: a0110c8353e43774ba7b65fb4c7a91a5, type: 3}
